…
agData_FAO_Country_Table

DT::datatable(agData_FAO_Country_Table)

agData_FAO_Region_Table

DT::datatable(agData_FAO_Region_Table)

agData_FAO_Crops

# Get Data
xx <- agData_FAO_Crops %>% as_tibble()
xx

## # A tibble: 1,848,653 x 6
##    Area       Year Crop                Measurement    Unit         Value
##    <fct>     <dbl> <chr>               <fct>          <chr>        <dbl>
##  1 Algeria    1961 Almonds, with shell Area harvested hectares 13300    
##  2 Algeria    1961 Almonds, with shell Yield          t/ha         0.451
##  3 Algeria    1961 Almonds, with shell Production     tonnes    6000    
##  4 Argentina  1961 Almonds, with shell Production     tonnes      80    
##  5 Bulgaria   1961 Almonds, with shell Production     tonnes    2097    
##  6 China      1961 Almonds, with shell Production     tonnes    5000    
##  7 Cyprus     1961 Almonds, with shell Area harvested hectares  5800    
##  8 Cyprus     1961 Almonds, with shell Yield          t/ha         0.420
##  9 Cyprus     1961 Almonds, with shell Production     tonnes    2438    
## 10 France     1961 Almonds, with shell Production     tonnes    3680    
## # ... with 1,848,643 more rows

# List Measurements
xx %>% distinct(Measurement, Unit)

## # A tibble: 3 x 2
##   Measurement    Unit    
##   <fct>          <chr>   
## 1 Area harvested hectares
## 2 Yield          t/ha    
## 3 Production     tonnes

# List Crops
xx %>% distinct(Crop)

## # A tibble: 171 x 1
##    Crop                            
##    <chr>                           
##  1 Almonds, with shell             
##  2 Anise, badian, fennel, coriander
##  3 Apples                          
##  4 Apricots                        
##  5 Areca nuts                      
##  6 Artichokes                      
##  7 Asparagus                       
##  8 Avocados                        
##  9 Bambara beans                   
## 10 Bananas                         
## # ... with 161 more rows

# Spread data to wide format
xx %>% select(-Unit) %>% spread(Measurement, Value) %>% arrange(Year)

## # A tibble: 722,033 x 6
##    Area         Year Crop                     `Area harvested` Production  Yield
##    <fct>       <dbl> <chr>                               <dbl>      <dbl>  <dbl>
##  1 Afghanistan  1961 Apples                               2220      15100  6.80 
##  2 Afghanistan  1961 Apricots                             4820      32000  6.64 
##  3 Afghanistan  1961 Barley                             350000     378000  1.08 
##  4 Afghanistan  1961 Cotton lint                            NA      17000 NA    
##  5 Afghanistan  1961 Cottonseed                             NA      34000 NA    
##  6 Afghanistan  1961 Figs                                 3200       8000  2.5  
##  7 Afghanistan  1961 Grapes                              50000     225000  4.5  
##  8 Afghanistan  1961 Linseed                             46800      17000  0.363
##  9 Afghanistan  1961 Maize                              500000     700000  1.4  
## 10 Afghanistan  1961 Melons, other (inc.cant~             3300      15700  4.76 
## # ... with 722,023 more rows
…
agData_FAO_Crops2

# Get Data
xx <- agData_FAO_Crops2 %>% as_tibble()
xx

## # A tibble: 600,533 x 6
##    Area         Year Crop             Measurement    Unit        Value
##    <fct>       <dbl> <chr>            <fct>          <chr>       <dbl>
##  1 Colombia     1961 Agave fibres nes Area harvested hectares 13500   
##  2 Colombia     1961 Agave fibres nes Yield          t/ha         1.26
##  3 Colombia     1961 Agave fibres nes Production     tonnes   17000   
##  4 Cuba         1961 Agave fibres nes Area harvested hectares 10000   
##  5 Cuba         1961 Agave fibres nes Yield          t/ha         1.11
##  6 Cuba         1961 Agave fibres nes Production     tonnes   11100   
##  7 El Salvador  1961 Agave fibres nes Area harvested hectares  5000   
##  8 El Salvador  1961 Agave fibres nes Yield          t/ha         0.68
##  9 El Salvador  1961 Agave fibres nes Production     tonnes    3400   
## 10 Guatemala    1961 Agave fibres nes Area harvested hectares   500   
## # ... with 600,523 more rows

# List Measurements
xx %>% distinct(Measurement, Unit)

## # A tibble: 3 x 2
##   Measurement    Unit    
##   <fct>          <chr>   
## 1 Area harvested hectares
## 2 Yield          t/ha    
## 3 Production     tonnes

# List Crops
xx %>% distinct(Crop)

## # A tibble: 30 x 1
##    Crop               
##    <chr>              
##  1 Agave fibres nes   
##  2 Bastfibres, other  
##  3 Berries nes        
##  4 Cereals nes        
##  5 Cereals            
##  6 Citrus Fruit       
##  7 Fibre crops nes    
##  8 Fibre Crops Primary
##  9 Fruit Primary      
## 10 Fruit, citrus nes  
## # ... with 20 more rows

# Spread data to wide format
xx %>% select(-Unit) %>% spread(Measurement, Value) %>% arrange(Year)

## # A tibble: 207,655 x 6
##    Area         Year Crop                `Area harvested` Production  Yield
##    <fct>       <dbl> <chr>                          <dbl>      <dbl>  <dbl>
##  1 Afghanistan  1961 Berries nes                     6800      60000  8.82 
##  2 Afghanistan  1961 Cereals                      3313500    3695000  1.12 
##  3 Afghanistan  1961 Citrus Fruit                    2160      15000  6.94 
##  4 Afghanistan  1961 Fibre Crops Primary            76892         NA NA    
##  5 Afghanistan  1961 Fruit Primary                 108699     567200  5.22 
##  6 Afghanistan  1961 Fruit, citrus nes                730       4900  6.71 
##  7 Afghanistan  1961 Fruit, fresh nes               13919      71200  5.12 
##  8 Afghanistan  1961 Fruit, stone nes                2850      18100  6.35 
##  9 Afghanistan  1961 Nuts nes                        7000      10500  1.5  
## 10 Afghanistan  1961 Oilcrops                      165792     101300  0.611
## # ... with 207,645 more rows
…
agData_FAO_Fertilizers

# Get Data
xx <- agData_FAO_Fertilizers %>% as_tibble()
xx

## # A tibble: 474,281 x 6
##    Area         Year Item                    Measurement     Unit   Value
##    <fct>       <dbl> <chr>                   <chr>           <chr>  <dbl>
##  1 Afghanistan  1961 Nitrogenous fertilizers Import Quantity tonnes  1000
##  2 Afghanistan  1961 Phosphate fertilizers   Import Quantity tonnes   100
##  3 Afghanistan  1961 Total Fertilizers       Import Quantity tonnes  1100
##  4 Albania      1961 Ammonium nitrate (AN)   Import Quantity tonnes  3187
##  5 Albania      1961 Nitrogenous fertilizers Import Quantity tonnes  3187
##  6 Albania      1961 Phosphate fertilizers   Import Quantity tonnes  2433
##  7 Albania      1961 Potash fertilizers      Import Quantity tonnes   682
##  8 Albania      1961 Single Superphosphate   Import Quantity tonnes  2433
##  9 Albania      1961 Total Fertilizers       Import Quantity tonnes  6302
## 10 Algeria      1961 Nitrogenous fertilizers Import Quantity tonnes  9000
## # ... with 474,271 more rows
…
## # A tibble: 6 x 2
##   Measurement      Unit    
##   <chr>            <chr>   
## 1 Import Quantity  tonnes  
## 2 Production       tonnes  
## 3 Agricultural Use tonnes  
## 4 Export Quantity  tonnes  
## 5 Import Value     1000 US$
## 6 Export Value     1000 US$

# List Crops
xx %>% distinct(Item)

## # A tibble: 50 x 1
##    Item                    
##    <chr>                   
##  1 Nitrogenous fertilizers 
##  2 Phosphate fertilizers   
##  3 Total Fertilizers       
##  4 Ammonium nitrate (AN)   
##  5 Potash fertilizers      
##  6 Single Superphosphate   
##  7 Ammonium Phosphate (N)  
##  8 Ammonium sulphate       
##  9 Ammonium SulphateNitrate
## 10 Basic Slag              
## # ... with 40 more rows
…
agData_FAO_LandUse

# Get Data
xx <- agData_FAO_LandUse %>% as_tibble()
xx

## # A tibble: 190,993 x 6
##    Area         Year Item                          Measurement Unit        Value
##    <fct>       <dbl> <chr>                         <chr>       <chr>       <dbl>
##  1 Afghanistan  1961 Country area                  Area        1000 hecta~ 65286
##  2 Afghanistan  1961 Land area                     Area        1000 hecta~ 65223
##  3 Afghanistan  1961 Agriculture                   Area        1000 hecta~ 37700
##  4 Afghanistan  1961 Agricultural land             Area        1000 hecta~ 37700
##  5 Afghanistan  1961 Cropland                      Area        1000 hecta~  7700
##  6 Afghanistan  1961 Arable land                   Area        1000 hecta~  7650
##  7 Afghanistan  1961 Land under permanent crops    Area        1000 hecta~    50
##  8 Afghanistan  1961 Land under perm. meadows and~ Area        1000 hecta~ 30000
##  9 Afghanistan  1961 Inland waters                 Area        1000 hecta~    63
## 10 Afghanistan  1961 Land area equipped for irrig~ Area        1000 hecta~  2380
## # ... with 190,983 more rows

# List Measurements
xx %>% distinct(Measurement, Unit)

## # A tibble: 2 x 2
##   Measurement                    Unit          
##   <chr>                          <chr>         
## 1 Area                           1000 hectares 
## 2 Carbon stock in living biomass million tonnes

# List Crops
xx %>% distinct(Item)

## # A tibble: 46 x 1
##    Item                                 
##    <chr>                                
##  1 Country area                         
##  2 Land area                            
##  3 Agriculture                          
##  4 Agricultural land                    
##  5 Cropland                             
##  6 Arable land                          
##  7 Land under permanent crops           
##  8 Land under perm. meadows and pastures
##  9 Inland waters                        
## 10 Land area equipped for irrigation    
## # ... with 36 more rows
…
agData_FAO_Livestock

# Get Data
xx <- agData_FAO_Livestock %>% as_tibble()
xx

## # A tibble: 1,133,753 x 6
##    Area                 Year Animal Measurement Unit     Value
##    <fct>               <dbl> <chr>  <fct>       <chr>    <dbl>
##  1 Afghanistan          1961 Asses  Stocks      number 1300000
##  2 Albania              1961 Asses  Stocks      number   57100
##  3 Algeria              1961 Asses  Stocks      number  315000
##  4 Angola               1961 Asses  Stocks      number    3100
##  5 Antigua and Barbuda  1961 Asses  Stocks      number    2300
##  6 Argentina            1961 Asses  Stocks      number  129000
##  7 Australia            1961 Asses  Stocks      number    5000
##  8 Barbados             1961 Asses  Stocks      number    2000
##  9 Benin                1961 Asses  Stocks      number     737
## 10 Bhutan               1961 Asses  Stocks      number   12000
## # ... with 1,133,743 more rows
…
# List Crops
xx %>% distinct(Animal)

## # A tibble: 103 x 1
##    Animal                     
##    <chr>                      
##  1 Asses                      
##  2 Beef and Buffalo Meat      
##  3 Beehives                   
##  4 Beeswax                    
##  5 Buffaloes                  
##  6 Butter and Ghee            
##  7 Butter and ghee, sheep milk
##  8 Butter, buffalo milk       
##  9 Butter, cow milk           
## 10 Camelids, other            
## # ... with 93 more rows
…
agData_FAO_Trade

# Get Data
xx <- agData_FAO_Trade %>% as_tibble()
xx

## # A tibble: 10,794,952 x 6
##    Area         Year Crop                   Measurement     Unit     Value
##    <fct>       <dbl> <chr>                  <chr>           <chr>    <dbl>
##  1 Afghanistan  1961 Butter, cow milk       Import Quantity tonnes      23
##  2 Afghanistan  1961 Butter, cow milk       Import Value    USD      16000
##  3 Afghanistan  1961 Cheese, whole cow milk Import Quantity tonnes       3
##  4 Afghanistan  1961 Cheese, whole cow milk Import Value    USD       2000
##  5 Afghanistan  1961 Cigarettes             Import Quantity tonnes     150
##  6 Afghanistan  1961 Cigarettes             Import Value    USD     526000
##  7 Afghanistan  1961 Cotton lint            Export Quantity tonnes   11480
##  8 Afghanistan  1961 Cotton lint            Export Value    USD    8320000
##  9 Afghanistan  1961 Cottonseed             Export Quantity tonnes    3050
## 10 Afghanistan  1961 Cottonseed             Export Value    USD     227000
## # ... with 10,794,942 more rows
…
# List Crops
xx %>% distinct(Crop)

## # A tibble: 478 x 1
##    Crop                     
##    <chr>                    
##  1 Butter, cow milk         
##  2 Cheese, whole cow milk   
##  3 Cigarettes               
##  4 Cotton lint              
##  5 Cottonseed               
##  6 Fruit, fresh nes         
##  7 Grapes                   
##  8 Hides, cattle, wet salted
##  9 Linseed                  
## 10 Milk, skimmed dried      
## # ... with 468 more rows
…
agData_STATCAN_Region_Table

DT::datatable(agData_STATCAN_Region_Table)

agData_STATCAN_Beehives

# Get Data
xx <- agData_STATCAN_Beehives %>% as_tibble()
xx

## # A tibble: 7,460 x 5
##    Area                  Year Measurement  Value Unit    
##    <fct>                <int> <fct>        <dbl> <fct>   
##  1 Alberta               1924 Beekeepers   0.16  Thousand
##  2 British Columbia      1924 Beekeepers   2.41  Thousand
##  3 Canada                1924 Beekeepers  22.2   Thousand
##  4 Manitoba              1924 Beekeepers   1.26  Thousand
##  5 New Brunswick         1924 Beekeepers   0.36  Thousand
##  6 Nova Scotia           1924 Beekeepers   0.2   Thousand
##  7 Ontario               1924 Beekeepers  10     Thousand
##  8 Prince Edward Island  1924 Beekeepers   0.005 Thousand
##  9 Quebec                1924 Beekeepers   7.4   Thousand
## 10 Saskatchewan          1924 Beekeepers   0.41  Thousand
## # ... with 7,450 more rows
…
agData_STATCAN_Crops

# Get Data
xx <- agData_STATCAN_Crops %>% as_tibble()
xx

## # A tibble: 65,933 x 6
##    Area                  Year Crop   Measurement        Unit               Value
##    <fct>                <int> <chr>  <fct>              <chr>              <dbl>
##  1 Canada                1908 Barley Seeded area        ha                7.07e5
##  2 Canada                1908 Barley Yield              kg/ha             1.44e3
##  3 Canada                1908 Barley Production         tonnes            1.02e6
##  4 Canada                1908 Barley Average farm price dollars per tonne 2.1 e1
##  5 Maritime Provinces    1908 Barley Seeded area        ha                7.7 e3
##  6 Maritime Provinces    1908 Barley Yield              kg/ha             1.52e3
##  7 Maritime Provinces    1908 Barley Production         tonnes            1.18e4
##  8 Maritime Provinces    1908 Barley Average farm price dollars per tonne 3.1 e1
##  9 Prince Edward Island  1908 Barley Seeded area        ha                2.4 e3
## 10 Prince Edward Island  1908 Barley Yield              kg/ha             1.66e3
## # ... with 65,923 more rows
…
## # A tibble: 5 x 2
##   Measurement        Unit             
##   <fct>              <chr>            
## 1 Seeded area        ha               
## 2 Yield              kg/ha            
## 3 Production         tonnes           
## 4 Average farm price dollars per tonne
## 5 Harvested area     ha

# List Crops
xx %>% distinct(Crop)

## # A tibble: 28 x 1
##    Crop          
##    <chr>         
##  1 Barley        
##  2 Beans         
##  3 Borage seed   
##  4 Buckwheat     
##  5 Canary seed   
##  6 Canola        
##  7 Caraway seed  
##  8 Chick peas    
##  9 Coriander seed
## 10 Corn for grain
## # ... with 18 more rows
…
agData_STATCAN_FarmLand_Crops

# Get Data
xx <- agData_STATCAN_FarmLand_Crops %>% as_tibble()
xx

## # A tibble: 12,482 x 6
##    Area    Year Crop        Measurement                         Unit       Value
##    <fct>  <int> <chr>       <chr>                               <chr>      <int>
##  1 Canada  1921 Total wheat Number of farms reporting           Number    3.81e5
##  2 Canada  1921 Total wheat Acres                               Acres     2.03e7
##  3 Canada  1921 Total wheat Hectares                            Hectares  8.21e6
##  4 Canada  1921 Total wheat Average area in acres per farm rep~ Acres     5.3 e1
##  5 Canada  1921 Oats        Number of farms reporting           Number    5.72e5
##  6 Canada  1921 Oats        Acres                               Acres     1.42e7
##  7 Canada  1921 Oats        Hectares                            Hectares  5.76e6
##  8 Canada  1921 Oats        Average area in acres per farm rep~ Acres     2.5 e1
##  9 Canada  1921 Barley      Number of farms reporting           Number    2.17e5
## 10 Canada  1921 Barley      Acres                               Acres     2.17e6
## # ... with 12,472 more rows
# List Measurements
xx %>% distinct(Measurement, Unit)

## # A tibble: 4 x 2
##   Measurement                              Unit    
##   <chr>                                    <chr>   
## 1 Number of farms reporting                Number  
## 2 Acres                                    Acres   
## 3 Hectares                                 Hectares
## 4 Average area in acres per farm reporting Acres

# List Crops
xx %>% distinct(Crop)

## # A tibble: 27 x 1
##    Crop                                              
##    <chr>                                             
##  1 Total wheat                                       
##  2 Oats                                              
##  3 Barley                                            
##  4 Corn for grain                                    
##  5 Flaxseed                                          
##  6 Potatoes                                          
##  7 Total tree fruits                                 
##  8 Total vegetables (excluding greenhouse vegetables)
##  9 Spring wheat (excluding durum)                    
## 10 Durum wheat                                       
## # ... with 17 more rows
…
agData_STATCAN_FarmLand_NoTill

# Get Data
xx <- agData_STATCAN_FarmLand_NoTill %>% as_tibble()
xx

## # A tibble: 264 x 6
##    Area                       Year Item            Measurement      Unit   Value
##    <fct>                     <int> <chr>           <chr>            <chr>  <int>
##  1 Canada                     1991 Total land pre~ Number of farms~ Numb~ 2.10e5
##  2 Canada                     1991 Total land pre~ Hectares         Hect~ 2.90e7
##  3 Canada                     1991 No-till seedin~ Number of farms~ Numb~ 1.76e4
##  4 Canada                     1991 No-till seedin~ Hectares         Hect~ 1.95e6
##  5 Newfoundland and Labrador  1991 Total land pre~ Number of farms~ Numb~ 3.29e2
##  6 Newfoundland and Labrador  1991 Total land pre~ Hectares         Hect~ 2.05e3
##  7 Newfoundland and Labrador  1991 No-till seedin~ Number of farms~ Numb~ 2.8 e1
##  8 Newfoundland and Labrador  1991 No-till seedin~ Hectares         Hect~ 1.69e2
##  9 Prince Edward Island       1991 Total land pre~ Number of farms~ Numb~ 1.87e3
## 10 Prince Edward Island       1991 Total land pre~ Hectares         Hect~ 1.12e5
## # ... with 254 more rows
…
agData_STATCAN_FarmLand_Size

# Get Data
xx <- agData_STATCAN_FarmLand_Size %>% as_tibble()
xx

## # A tibble: 1,485 x 5
##    Area    Year Measurement           Unit    Value
##    <fct>  <int> <fct>                 <chr>   <int>
##  1 Canada  1976 Total number of farms Number 338552
##  2 Canada  1976 Under 10 acres        Number  14095
##  3 Canada  1976 10 to 69 acres        Number  40573
##  4 Canada  1976 70 to 129 acres       Number  44010
##  5 Canada  1976 130 to 179 acres      Number  40693
##  6 Canada  1976 180 to 239 acres      Number  24262
##  7 Canada  1976 240 to 399 acres      Number  52859
##  8 Canada  1976 400 to 559 acres      Number  31571
##  9 Canada  1976 560 to 759 acres      Number  26616
## 10 Canada  1976 760 to 1,119 acres    Number  29513
## # ... with 1,475 more rows
…
